{
  "id": "customRadar",
  "title": "Custom radar",
  "scope": "user",
  "keywords": "",
  "initialProps": {
    "mapPreset": {
      "activeLayerId": "layerid_48",
      "layers": [
        {
          "dimensions": [],
          "enabled": true,
          "id": "layerid_45",
          "layerType": "baseLayer",
          "name": "arcGisCanvas",
          "opacity": 1,
          "service": "https://services.arcgisonline.com/ArcGIS/rest/services/Canvas/World_Light_Gray_Base/MapServer/tile/",
          "status": "default",
          "type": "twms"
        },
        {
          "dimensions": [],
          "enabled": true,
          "format": "image/png",
          "id": "layerid_51",
          "layerType": "overLayer",
          "name": "countryborders",
          "opacity": 1,
          "service": "https://geoservices.knmi.nl/wms?DATASET=baselayers",
          "status": "default"
        },
        {
          "dimensions": [],
          "enabled": true,
          "id": "layerid_52",
          "layerType": "mapLayer",
          "name": "boundaries",
          "opacity": 1,
          "service": "https://adaguc-server-geoweb.geoweb.knmi.cloud/adagucserver?dataset=cell-tracking",
          "status": "default",
          "style": "polygon_boundaries_black/polyline"
        },
        {
          "dimensions": [],
          "enabled": true,
          "id": "layerid_49",
          "layerType": "mapLayer",
          "name": "LGT_NL23_LAM_05M",
          "opacity": 1,
          "service": "https://adaguc-server-geoweb.geoweb.knmi.cloud/adagucserver?dataset=LGT",
          "status": "default",
          "style": "LGTKNMI_16/point"
        }
      ],
      "proj": {
        "bbox": {
          "bottom": 5961161.133412388,
          "left": -831477.2164530095,
          "right": 2303726.283677594,
          "top": 7499450.958457771
        },
        "srs": "EPSG:3857"
      },
      "shouldAnimate": false,
      "shouldAutoUpdate": false
    }
  },
  "componentType": "Map"
}
