{
  "name": "sigmet-airmet",
  "$schema": "../../node_modules/nx/schemas/project-schema.json",
  "sourceRoot": "libs/sigmet-airmet/src",
  "projectType": "library",
  "generators": {},
  "targets": {
    "lint": {
      "executor": "@nx/linter:eslint",
      "options": {
        "lintFilePatterns": ["libs/sigmet-airmet/**/*.{ts,tsx,js,jsx}"]
      }
    },
    "build": {
      "executor": "@nx/rollup:rollup",
      "options": {
        "outputPath": "dist/libs/sigmet-airmet",
        "tsConfig": "libs/sigmet-airmet/tsconfig.lib.json",
        "project": "libs/sigmet-airmet/package.json",
        "entryFile": "libs/sigmet-airmet/src/index.ts",
        "external": [
          "axios",
          "react",
          "react-dom",
          "@mui/material",
          "@mui/x-date-pickers",
          "moment",
          "react-hook-form",
          "@turf/turf",
          "lodash"
        ],
        "rollupConfig": "@nx/react/plugins/bundle-rollup",
        "assets": [
          {
            "glob": "README.md",
            "input": "./libs/sigmet-airmet",
            "output": "."
          }
        ],
        "buildableProjectDepsInPackageJsonType": "dependencies",
        "updateBuildableProjectDepsInPackageJson": true
      },
      "outputs": ["{options.outputPath}"]
    },
    "test": {
      "executor": "@nx/jest:jest",
      "options": {
        "jestConfig": "libs/sigmet-airmet/jest.config.js",
        "passWithNoTests": true,
        "codeCoverage": true
      },
      "outputs": ["{workspaceRoot}/coverage/libs/sigmet-airmet"]
    },
    "storybook": {
      "executor": "@nx/storybook:storybook",
      "options": {
        "port": 4400,
        "configDir": "libs/sigmet-airmet/.storybook",
        "outputDir": "dist/storybook/sigmet-airmet"
      },
      "configurations": {
        "ci": {
          "quiet": true
        }
      }
    },
    "build-storybook": {
      "executor": "@nx/storybook:build",
      "outputs": ["{options.outputPath}"],
      "options": {
        "configDir": "libs/sigmet-airmet/.storybook",
        "outputDir": "dist/storybook/sigmet-airmet"
      },
      "configurations": {
        "ci": {
          "quiet": true
        }
      }
    },
    "typecheck": {
      "executor": "nx:run-commands",
      "options": {
        "command": "tsc -p libs/sigmet-airmet/tsconfig.lib.json"
      }
    },
    "docs": {
      "executor": "nx:run-commands",
      "options": {
        "command": "npx typedoc --out docs/sigmet-airmet libs/sigmet-airmet/src/index.ts --tsconfig libs/sigmet-airmet/tsconfig.lib.json"
      }
    }
  },
  "tags": ["scope:sigmet-airmet"]
}
