[
  {
    "id": "screenConfigRadarTemp",
    "title": "Radar and temperature",
    "date": "2022-06-01T12:34:27.787184",
    "scope": "system",
    "abstract": "Radar and temperature maps",
    "viewType": "multiWindow"
  },
  {
    "id": "screenConfigRadarRadar",
    "title": "Radar and Radar",
    "date": "2022-06-01T12:34:27.787184",
    "scope": "system",
    "abstract": "",
    "viewType": "multiWindow"
  },
  {
    "id": "screenConfigTimeSeries",
    "title": "TimeSeries",
    "date": "2022-06-01T12:34:27.787184",
    "scope": "system",
    "abstract": "",
    "viewType": "multiWindow"
  },
  {
    "id": "screenConfigHarmoniePrecipMSLRefTimePresetWithoutMultiMapLayerManager",
    "title": "Precipitation, pressure and wind 1:1",
    "date": "2022-06-01T12:34:27.787184",
    "scope": "system",
    "abstract": "",
    "viewType": "tiledWindow"
  },
  {
    "id": "screenConfigHarmoniePrecipMSLRefTimePresetWithMultiMapLayerManager",
    "title": "Precipitation, pressure and wind 1:all",
    "date": "2022-06-01T12:34:27.787184",
    "scope": "system",
    "abstract": "",
    "viewType": "tiledWindow"
  },
  {
    "id": "screenConfigHarmoniePresetWithoutMultiMapLayerManager",
    "title": "Harmonie Temperature and Precipitation 1:1",
    "date": "2022-06-01T12:34:27.787184",
    "scope": "system",
    "abstract": "",
    "viewType": "tiledWindow"
  },
  {
    "id": "screenConfigHarmoniePresetWithMultiMapLayerManager",
    "title": "Harmonie Temperature and Precipitation 1:all",
    "date": "2022-06-01T12:34:27.787184",
    "scope": "system",
    "abstract": "",
    "viewType": "tiledWindow"
  },
  {
    "id": "radarView",
    "title": "Radar",
    "date": "2022-06-01T12:34:27.787184",
    "scope": "user",
    "abstract": "Some abstract",
    "viewType": "singleWindow"
  },
  {
    "id": "screenConfigD",
    "title": "Radar & Sat",
    "date": "2022-06-01T12:34:27.787184",
    "scope": "system",
    "abstract": "",
    "viewType": "multiWindow"
  },
  {
    "id": "screenConfigOBS",
    "title": "OBS",
    "date": "2022-06-01T12:34:27.787184",
    "scope": "system",
    "abstract": "",
    "viewType": "multiWindow"
  },
  {
    "id": "screenConfigRadAndObs",
    "title": "FourMapsInOneView",
    "date": "2022-06-01T12:34:27.787184",
    "scope": "system",
    "abstract": "Four grid maps",
    "viewType": "tiledWindow"
  },
  {
    "id": "screenConfigHarmonie",
    "title": "Harmonie multi",
    "date": "2022-06-01T12:34:27.787184",
    "scope": "system",
    "abstract": "",
    "viewType": "multiWindow"
  },
  {
    "id": "workspaceHarmonie",
    "title": "Harmonie",
    "date": "2022-06-01T12:34:27.787184",
    "scope": "system",
    "abstract": "",
    "viewType": "singleWindow"
  },
  {
    "id": "screenConfigOnlyBBOXGroup",
    "title": "SyncGroups only BBOX predefined",
    "date": "2022-06-01T12:34:27.787184",
    "scope": "system",
    "abstract": "SyncGroups synced BBOX",
    "viewType": "multiWindow"
  },
  {
    "id": "screenConfigOnlyTIMEGroup",
    "title": "SyncGroups only TIME predefined",
    "date": "2022-06-01T12:34:27.787184",
    "scope": "system",
    "abstract": "SyncGroups synced TIME",
    "viewType": "multiWindow"
  },
  {
    "id": "emptyMap",
    "title": "Empty map",
    "date": "2022-06-01T12:34:27.787184",
    "scope": "system",
    "abstract": "",
    "viewType": "singleWindow"
  },
  {
    "id": "capWorkspace",
    "title": "Cap Warnings",
    "date": "2022-06-01T12:34:27.787184",
    "scope": "system",
    "abstract": "",
    "viewType": "multiWindow"
  }
]
