{
  "location_indicator_mwo": "EFKL",
  "fir_areas": {
    "EHAA": {
      "fir_name": "AMSTERDAM FIR",
      "fir_location": {
        "type": "FeatureCollection",
        "features": [
          {
            "type": "Feature",
            "geometry": {
              "type": "Polygon",
              "coordinates": [
                [
                  [5.0, 55.0],
                  [4.331914, 55.332644],
                  [3.368817, 55.764314],
                  [2.761908, 54.379261],
                  [3.15576, 52.913554],
                  [2.000002, 51.500002],
                  [3.370001, 51.369722],
                  [3.370527, 51.36867],
                  [3.362223, 51.320002],
                  [3.36389, 51.313608],
                  [3.373613, 51.309999],
                  [3.952501, 51.214441],
                  [4.397501, 51.452776],
                  [5.078611, 51.391665],
                  [5.848333, 51.139444],
                  [5.651667, 50.824717],
                  [6.011797, 50.757273],
                  [5.934168, 51.036386],
                  [6.222223, 51.361666],
                  [5.94639, 51.811663],
                  [6.405001, 51.830828],
                  [7.053095, 52.237764],
                  [7.031389, 52.268885],
                  [7.063612, 52.346109],
                  [7.065557, 52.385828],
                  [7.133055, 52.888887],
                  [7.14218, 52.898244],
                  [7.191667, 53.3],
                  [6.5, 53.666667],
                  [6.500002, 55.000002],
                  [5.0, 55.0]
                ]
              ]
            },
            "properties": {
              "selectionType": "fir"
            }
          }
        ]
      },
      "location_indicator_atsr": "EHAA",
      "location_indicator_atsu": "EHAA",
      "area_preset": "NL_FIR",
      "max_hours_of_validity": 4,
      "hours_before_validity": 4,
      "tc_max_hours_of_validity": 6,
      "tc_hours_before_validity": 12,
      "va_max_hours_of_validity": 6,
      "va_hours_before_validity": 12,
      "adjacent_firs": ["EKDK", "EDWW", "EDGG", "EBBU", "EGTT", "EGPX"],
      "level_min": {
        "FT": 100,
        "FL": 50
      },
      "level_max": {
        "FT": 4900,
        "FL": 650
      },
      "level_rounding_FL": 5,
      "level_rounding_FT": 500,
      "movement_min": {
        "KT": 5,
        "KMH": 10
      },
      "movement_max": {
        "KT": 150,
        "KMH": 99
      },
      "movement_rounding_kt": 5,
      "units": [
        {
          "unit_type": "level_unit",
          "allowed_units": ["FT", "FL"]
        },
        {
          "unit_type": "movement_unit",
          "allowed_units": ["KT"]
        }
      ]
    },
    "EFIN": {
      "fir_name": "HELSINKI FIR",
      "fir_location": {
        "type": "FeatureCollection",
        "features": [
          {
            "type": "Feature",
            "geometry": {
              "type": "Polygon",
              "coordinates": [
                [
                  [20.99838184, 59.00320131],
                  [19.08635926, 60.19243652],
                  [19.49563971, 61.65601175],
                  [20.1658189, 63.16485137],
                  [20.67114467, 63.47577446],
                  [21.50249253, 63.61579885],
                  [24.13844028, 65.52918556],
                  [24.15532318, 65.81550064],
                  [23.64821363, 66.30213681],
                  [23.9953484, 66.82120009],
                  [23.55447539, 67.1674658],
                  [23.76458167, 67.42821432],
                  [23.39254095, 67.48506605],
                  [23.64629671, 67.96275572],
                  [22.8438347, 68.38372799],
                  [22.04190556, 68.48018915],
                  [20.55232778, 69.06007631],
                  [21.05754391, 69.03628966],
                  [21.00331318, 69.22233669],
                  [21.62708633, 69.2765883],
                  [22.3745219, 68.71666656],
                  [23.16758229, 68.62851893],
                  [23.87146077, 68.83651918],
                  [24.90316577, 68.55459183],
                  [25.24328841, 68.84142353],
                  [25.6537324, 68.90609986],
                  [25.89149073, 69.66550288],
                  [26.46713054, 69.93950623],
                  [27.9594654, 70.09266042],
                  [28.40422577, 69.81842493],
                  [29.13390346, 69.69534054],
                  [29.33649679, 69.47832203],
                  [28.83154065, 69.22436065],
                  [28.92916667, 69.05194444],
                  [28.41583333, 68.91555556],
                  [28.80083333, 68.86916667],
                  [28.43388889, 68.53972222],
                  [28.64611111, 68.19638889],
                  [29.32722222, 68.07444444],
                  [30.01694444, 67.67361111],
                  [29.03333333, 66.92611111],
                  [29.92333333, 66.12722222],
                  [30.11944444, 65.75222222],
                  [29.72194444, 65.63722222],
                  [29.86388889, 65.56055556],
                  [29.60166667, 65.26],
                  [29.89694444, 65.10527778],
                  [29.62694444, 65.06055556],
                  [29.61111111, 64.92722222],
                  [30.08638889, 64.77388889],
                  [30.045, 64.40194444],
                  [30.4825, 64.26222222],
                  [30.55361111, 64.10166667],
                  [29.97194444, 63.75722222],
                  [31.2375, 63.21916667],
                  [31.58666667, 62.90861111],
                  [31.1625, 62.44611111],
                  [27.87333333, 60.60444444],
                  [27.45666667, 60.22333333],
                  [26.53410355, 60.13132027],
                  [25.86517918, 59.88225036],
                  [24.851484, 59.88291356],
                  [20.99838184, 59.00320131]
                ]
              ]
            },
            "properties": {
              "selectionType": "fir"
            }
          }
        ]
      },
      "location_indicator_atsr": "EFIN",
      "location_indicator_atsu": "EFIN",
      "area_preset": "FI_FIR",
      "max_hours_of_validity": 4,
      "hours_before_validity": 4,
      "tc_max_hours_of_validity": 6,
      "tc_hours_before_validity": 12,
      "va_max_hours_of_validity": 6,
      "va_hours_before_validity": 12,
      "adjacent_firs": ["ESAA", "ENOR", "EETT", "ULLL"],
      "level_min": {
        "FT": 100,
        "FL": 50
      },
      "level_max": {
        "FT": 4900,
        "FL": 660
      },
      "level_rounding_FL": 10,
      "level_rounding_FT": 5,
      "movement_min": {
        "KT": 5,
        "KMH": 10
      },
      "movement_max": {
        "KT": 90,
        "KMH": 167
      },
      "movement_rounding_kt": 5,
      "units": [
        {
          "unit_type": "level_unit",
          "allowed_units": ["FT", "FL", "KT"]
        },
        {
          "unit_type": "movement_unit",
          "allowed_units": ["KT"]
        }
      ]
    },
    "ENOR": {
      "fir_name": "POLARIS FIR",
      "fir_location": {
        "type": "FeatureCollection",
        "features": [
          {
            "type": "Feature",
            "geometry": {
              "type": "Polygon",
              "coordinates": [
                [
                  [7.5, 57],
                  [5, 57],
                  [0, 60],
                  [0, 63],
                  [4, 63],
                  [6.08317, 65],
                  [15, 70],
                  [25, 71.3332],
                  [28, 71.3332],
                  [32.75, 70.5],
                  [30, 69],
                  [17, 67.5],
                  [14.25, 65],
                  [14.1667, 64],
                  [12.25, 62],
                  [13, 61.25],
                  [12.1667, 59],
                  [10.5, 58.5]
                ]
              ]
            },
            "properties": {
              "selectionType": "fir"
            }
          }
        ]
      },
      "location_indicator_atsr": "ENOR",
      "location_indicator_atsu": "ENOR",
      "area_preset": "NOR_FIR",
      "max_hours_of_validity": 4,
      "hours_before_validity": 4,
      "tc_max_hours_of_validity": 6,
      "tc_hours_before_validity": 12,
      "va_max_hours_of_validity": 6,
      "va_hours_before_validity": 12,
      "adjacent_firs": ["ESSA, EKDK,EGPX, BIRD, ENOB, EFIN, ULLL"],
      "level_min": {
        "FT": 100,
        "FL": 50
      },
      "level_max": {
        "FT": 4900,
        "FL": 660
      },
      "level_rounding_FL": 5,
      "level_rounding_FT": 500,
      "movement_min": {
        "KT": 5,
        "KMH": 10
      },
      "movement_max": {
        "KT": 150,
        "KMH": 99
      },
      "movement_rounding_kt": 5,
      "units": [
        {
          "unit_type": "level_unit",
          "allowed_units": ["FT", "FL"]
        },
        {
          "unit_type": "movement_unit",
          "allowed_units": ["KT"]
        }
      ]
    },
    "ENOB": {
      "fir_name": "BO OCEAN FIR",
      "fir_location": {
        "type": "FeatureCollection",
        "features": [
          {
            "type": "Feature",
            "geometry": {
              "type": "Polygon",
              "coordinates": [
                [
                  [4, 63],
                  [0, 63],
                  [0, 82],
                  [30, 82],
                  [30, 71],
                  [28, 71.3332],
                  [25, 71.3332],
                  [15, 70],
                  [6.08317, 65]
                ]
              ]
            },
            "properties": {
              "selectionType": "fir"
            }
          }
        ]
      },
      "location_indicator_atsr": "ENOB",
      "location_indicator_atsu": "ENOB",
      "area_preset": "BO_OCEAN_FIR",
      "max_hours_of_validity": 4,
      "hours_before_validity": 4,
      "tc_max_hours_of_validity": 6,
      "tc_hours_before_validity": 12,
      "va_max_hours_of_validity": 6,
      "va_hours_before_validity": 12,
      "adjacent_firs": ["ENOR, BIRD, BGGL, ULLL"],
      "level_min": {
        "FT": 100,
        "FL": 50
      },
      "level_max": {
        "FT": 4900,
        "FL": 660
      },
      "level_rounding_FL": 5,
      "level_rounding_FT": 500,
      "movement_min": {
        "KT": 5,
        "KMH": 10
      },
      "movement_max": {
        "KT": 150,
        "KMH": 99
      },
      "movement_rounding_kt": 5,
      "units": [
        {
          "unit_type": "level_unit",
          "allowed_units": ["FT", "FL"]
        },
        {
          "unit_type": "movement_unit",
          "allowed_units": ["KT"]
        }
      ]
    }
  },
  "valid_from_delay_minutes": 5,
  "default_validity_minutes": 120,
  "active_firs": ["EHAA", "EFIN", "ENOR", "ENOB"],
  "mapPreset": {
    "layers": [
      {
        "id": "baseLayer-sigmet",
        "name": "WorldMap_Light_Grey_Canvas",
        "type": "twms",
        "layerType": "baseLayer"
      },
      {
        "id": "countryborder-sigmet",
        "name": "countryborders",
        "layerType": "overLayer",
        "format": "image/png",
        "enabled": true,
        "service": "https://geoservices.knmi.nl/wms?DATASET=baselayers&"
      }
    ]
  },
  "omit_change_va_and_rdoact_cloud": true
}
