{
  "name": "geoweb-e2e",
  "$schema": "../../node_modules/nx/schemas/project-schema.json",
  "sourceRoot": "apps/geoweb-e2e/src",
  "projectType": "application",
  "targets": {
    "e2e": {
      "executor": "@nx/cypress:cypress",
      "options": {
        "cypressConfig": "apps/geoweb-e2e/cypress.config.ts",
        "devServerTarget": "geoweb:serve"
      },
      "configurations": {
        "production": {
          "devServerTarget": "geoweb:serve:production"
        }
      }
    },
    "lint": {
      "executor": "@nx/linter:eslint",
      "options": {
        "lintFilePatterns": ["apps/geoweb-e2e/**/*.{js,ts}"]
      }
    },
    "typecheck": {
      "executor": "nx:run-commands",
      "options": {
        "command": "tsc -p apps/geoweb-e2e/tsconfig.e2e.json"
      }
    }
  },
  "tags": ["scope:geoweb-e2e"],
  "implicitDependencies": ["geoweb"]
}
