{
  "GW_AUTH_CLIENT_ID": "1234fakeid",
  "GW_AUTH_LOGIN_URL": "https://knmi-geoweb-tst.fakecognito.com/oauth2/authorize?client_id={client_id}&response_type=code&scope=email+openid&redirect_uri={app_url}/code&state={state}&code_challenge={code_challenge}&code_challenge_method=S256",
  "GW_AUTH_LOGOUT_URL": "https://knmi-geoweb-tst.fakecognito.com/logout?client_id={client_id}&logout_uri={app_url}/login",
  "GW_AUTH_TOKEN_URL": "https://1234fakenumbers.fakeamazonaws.com/infra/auth/token",
  "GW_INFRA_BASE_URL": "/infra",
  "GW_APP_URL": "http://localhost:5400",
  "GW_INITIAL_PRESETS_FILENAME": "initialPresets.json",
  "GW_FEATURE_APP_TITLE": "Mocked GeoWeb With Airmet",
  "GW_FEATURE_FORCE_AUTHENTICATION": true,
  "GW_FEATURE_MODULE_SPACE_WEATHER": false,
  "GW_FEATURE_MENU_FEEDBACK": false,
  "GW_FEATURE_MENU_INFO": false,
  "GW_FEATURE_MENU_VERSION": false,
  "GW_FEATURE_MODULE_AIRMET_CONFIGURATION": "mockExample.airmetConfig.json",
  "GW_AIRMET_BASE_URL": "/aviation",
  "GW_PRESET_BACKEND_URL": "/presets"
}
