{
  "id": "923723984872338768743",
  "objectName": "Drawing object 101",
  "lastUpdatedTime": "2022-06-01T12:34:27Z",
  "scope": "user",
  "geoJSON": {
    "type": "FeatureCollection",
    "features": [
      {
        "type": "Feature",
        "properties": {
          "fill": "#ff7800",
          "fill-opacity": 0.2,
          "stroke": "#ff7800",
          "stroke-width": 2,
          "stroke-opacity": 1,
          "selectionType": "poly"
        },
        "geometry": {
          "type": "Polygon",
          "coordinates": [
            [
              [3.357673379394467, 54.021903403974555],
              [6.600428193305415, 54.583753881732186],
              [6.642909697417786, 50.7929736738295],
              [3.357673379394467, 54.021903403974555]
            ]
          ]
        }
      }
    ]
  }
}
